…
    ),
    # Change fractions to decimals in the measure column
    measure = str_replace(measure, " ?1/2", ".5"),
    measure = str_replace(measure, " ?3/4", ".75"),
    measure = str_replace(measure, " ?1/4", ".25"),
    # parse the number out of the measure, we can use this later
    measure_number = parse_number(measure),
    measure_number = if_else(str_detect(measure, "dash$"),
      measure_number / 50,
      measure_number
    )
  )
cocktails_parsed

## # A tibble: 3,643 x 7
##    name    category   row_id ingredient_numb… ingredient  measure measure_number
##    <chr>   <chr>       <dbl>            <dbl> <chr>       <chr>            <dbl>
##  1 Gauguin Cocktail …      1                1 rum         2 oz              2   
##  2 Gauguin Cocktail …      1                2 passion fr… 1 oz              1   
##  3 Gauguin Cocktail …      1                3 lemon juice 1 oz              1   
##  4 Gauguin Cocktail …      1                4 lime juice  1 oz              1   
##  5 Fort L… Cocktail …      2                1 rum         1.5 oz            1.5 
##  6 Fort L… Cocktail …      2                2 sweet verm… .5 oz             0.5 
##  7 Fort L… Cocktail …      2                3 orange jui… .25 oz            0.25
##  8 Fort L… Cocktail …      2                4 lime juice  .25 oz            0.25
##  9 Apple … Cordials …      3                1 apple schn… 3 oz              3   
## 10 Apple … Cordials …      3                2 cinnamon s… 1 oz              1   
## # … with 3,633 more rows

Let’s have another look at the most frequent ingredients:

cocktails_parsed %>%
  count(ingredient, sort = TRUE)

## # A tibble: 405 x 2
##    ingredient       n
##    <chr>        <int>
##  1 lemon juice    311
##  2 rum            184
##  3 lime juice     180
##  4 gin            176
##  5 bitters        166
##  6 whiskey        138
##  7 orange juice   124
##  8 simple syrup   115
##  9 vodka          114
## 10 dry vermouth   107
## # … with 395 more rows
…
Let’s look at another question now: Which ingredients tend to appear together in the same recipe?

First we calculate correlation between ingredients:

library(widyr)
library(tidytext)

ingredient_pairs <- cocktails_parsed_filtered %>%
        add_count(ingredient) %>%   # like group_by then count
        filter(n >= 5) %>% # filter only for ingredients that appear in min. 5 recipes
        pairwise_cor(ingredient, name, sort = TRUE)

ingredient_pairs

## # A tibble: 1,482 x 3
##    item1          item2          correlation
##    <chr>          <chr>                <dbl>
##  1 whole egg      powdered sugar       0.361
##  2 powdered sugar whole egg            0.361
##  3 port           powdered sugar       0.278
##  4 powdered sugar port                 0.278
##  5 dry vermouth   gin                  0.276
##  6 gin            dry vermouth         0.276
##  7 egg yolk       powdered sugar       0.251
##  8 powdered sugar egg yolk             0.251
##  9 lime juice     rum                  0.251
## 10 rum            lime juice           0.251
## # … with 1,472 more rows
…
