…
cocktails_parsed

## # A tibble: 2,542 x 7
##    name     category   row_id ingredient_numb… ingredient measure measure_number
##    <chr>    <chr>       <dbl>            <dbl> <chr>      <chr>            <dbl>
##  1 Gauguin  Cocktail …      1                1 light rum  2 oz              2   
##  2 Gauguin  Cocktail …      1                3 lemon jui… 1 oz              1   
##  3 Gauguin  Cocktail …      1                4 lime juice 1 oz              1   
##  4 Fort La… Cocktail …      2                1 light rum  1.5 oz            1.5 
##  5 Fort La… Cocktail …      2                2 sweet ver… .5 oz             0.5 
##  6 Fort La… Cocktail …      2                3 orange ju… .25 oz            0.25
##  7 Fort La… Cocktail …      2                4 lime juice .25 oz            0.25
##  8 Cuban C… Cocktail …      4                1 lime juice .5 oz             0.5 
##  9 Cuban C… Cocktail …      4                2 powdered … .5 oz             0.5 
## 10 Cuban C… Cocktail …      4                3 light rum  2 oz              2   
## # … with 2,532 more rows
…
